{
	"primary_docs" : [
		{
			"title" : "Application Form",
			"source" : "http://www.formsbirds.com/formimg/medical-screening-form/1214/universal-child-health-record-new-jersey-l1.png",
			"annotationObjs": [
				{
					"id": "",
					"value": 0,
					"start": [200, 500],
					"end": [710, 510]
				},
				{
					"id": "name",
					"value": 1,
					"start": [100, 300],
					"end": [310, 410]
				},
				{
					"id": "",
					"value": 2,
					"start": [400, 300],
					"end": [610, 610]
				},
				{
					"id": "",
					"value": 3,
					"start": [500, 800],
					"end": [600, 900]
				}
				
			]
		}
	],
	"secondary_docs" : [
		{
			"title" : "ID 1",
			"source" : "http://s1.www.scan2docx.com/img/samples/document_scanner_sample_scan_70_zoom.jpg",
			"annotationObjs": [
				{
					"id": "name",
					"value": 3,
					"start": [100, 500],
					"end": [400, 600]
				}
			]
		},
		{
			"title" : "ID 2",
			"source" : "http://www.formsbirds.com/formimg/medical-screening-form/1214/universal-child-health-record-new-jersey-l1.png",
			"annotationObjs": [
				{
					"id": "",
					"value": 3,
					"start": [100, 500],
					"end": [400, 600]
				}
			]
		},
		{
			"title" : "COE",
			"source" : "http://www.formsbirds.com/formimg/medical-screening-form/1214/universal-child-health-record-new-jersey-l1.png",
			"annotationObjs": [
				{
					"id": "",
					"value": 3,
					"start": [100, 500],
					"end": [400, 600]
				}
			]
		}
	]
}
